module gitlab.wikimedia.org/repos/releng/cli

require (
	cgt.name/pkg/go-mwclient v1.2.0
	github.com/AlecAivazis/survey/v2 v2.3.6
	github.com/MakeNowJust/heredoc v1.0.0
	github.com/Masterminds/sprig v2.22.0+incompatible
	github.com/PuerkitoBio/goquery v1.8.1
	github.com/adrg/xdg v0.4.0
	github.com/alecthomas/assert v0.0.0-20170929043011-405dbfeb8e38
	github.com/andygrunwald/go-gerrit v0.0.0-20210919125110-ff14d0674afb
	github.com/blang/semver v3.5.1+incompatible
	github.com/charmbracelet/glamour v0.6.0
	github.com/cli/cli/v2 v2.25.1
	github.com/docker/docker v23.0.1+incompatible
	github.com/fatih/color v1.15.0
	github.com/hashicorp/go-version v1.6.0
	github.com/itchyny/gojq v0.12.12
	github.com/joho/godotenv v1.5.1
	github.com/mattn/go-isatty v0.0.18
	github.com/mitchellh/mapstructure v1.5.0
	github.com/muesli/termenv v0.15.1
	github.com/rhysd/go-github-selfupdate v1.2.3
	github.com/rodaine/table v1.1.0
	github.com/schollz/progressbar/v3 v3.13.1
	github.com/sirupsen/logrus v1.9.0
	github.com/spf13/cobra v1.6.1
	github.com/spf13/pflag v1.0.5
	github.com/txn2/txeh v1.3.0
	github.com/xanzy/go-gitlab v0.73.1
	gitlab.com/gitlab-org/cli v1.26.0
	golang.org/x/term v0.6.0
	gopkg.in/ini.v1 v1.67.0
	gopkg.in/yaml.v2 v2.4.0
)

require (
	github.com/aymanbagabas/go-osc52/v2 v2.0.1 // indirect
	gopkg.in/yaml.v3 v3.0.1 // indirect
)

require (
	github.com/Masterminds/goutils v1.1.1 // indirect
	github.com/Masterminds/semver v1.5.0 // indirect
	github.com/Microsoft/go-winio v0.5.0 // indirect
	github.com/alecthomas/chroma v0.10.0 // indirect
	github.com/alecthomas/colour v0.1.0 // indirect
	github.com/alecthomas/repr v0.0.0-20210801044451-80ca428c5142 // indirect
	github.com/andybalholm/cascadia v1.3.1 // indirect
	github.com/antonholmquist/jason v1.0.0 // indirect
	github.com/avast/retry-go v3.0.0+incompatible // indirect
	github.com/aymerick/douceur v0.2.0 // indirect
	github.com/briandowns/spinner v1.18.1 // indirect
	github.com/cpuguy83/go-md2man/v2 v2.0.2 // indirect
	github.com/dave/jennifer v1.6.0
	github.com/dlclark/regexp2 v1.4.0 // indirect
	github.com/docker/distribution v2.7.1+incompatible // indirect
	github.com/docker/go-connections v0.4.0 // indirect
	github.com/docker/go-units v0.4.0 // indirect
	github.com/dustin/go-humanize v1.0.0 // indirect
	github.com/fsnotify/fsnotify v1.5.1 // indirect
	github.com/gdamore/encoding v1.0.0 // indirect
	github.com/gdamore/tcell/v2 v2.5.4 // indirect
	github.com/gogo/protobuf v1.3.2 // indirect
	github.com/golang/protobuf v1.5.2 // indirect
	github.com/google/go-github/v30 v30.1.0 // indirect
	github.com/google/go-querystring v1.1.0 // indirect
	github.com/google/renameio v1.0.1 // indirect
	github.com/google/shlex v0.0.0-20191202100458-e7afc7fbc510 // indirect
	github.com/google/uuid v1.2.0 // indirect
	github.com/gorilla/css v1.0.0 // indirect
	github.com/gosuri/uilive v0.0.4 // indirect
	github.com/hashicorp/errwrap v1.0.0 // indirect
	github.com/hashicorp/go-cleanhttp v0.5.2 // indirect
	github.com/hashicorp/go-multierror v1.1.1 // indirect
	github.com/hashicorp/go-retryablehttp v0.7.1 // indirect
	github.com/hashicorp/hcl v1.0.0 // indirect
	github.com/huandu/xstrings v1.3.2 // indirect
	github.com/imdario/mergo v0.3.12 // indirect
	github.com/inconshreveable/go-update v0.0.0-20160112193335-8152e7eb6ccf // indirect
	github.com/inconshreveable/mousetrap v1.0.1 // indirect
	github.com/itchyny/timefmt-go v0.1.5 // indirect
	github.com/kballard/go-shellquote v0.0.0-20180428030007-95032a82bc51 // indirect
	github.com/lucasb-eyer/go-colorful v1.2.0 // indirect
	github.com/lunixbochs/vtclean v1.0.0 // indirect
	github.com/magiconair/properties v1.8.5 // indirect
	github.com/mattn/go-colorable v0.1.13 // indirect
	github.com/mattn/go-runewidth v0.0.14 // indirect
	github.com/mgutz/ansi v0.0.0-20200706080929-d51e80ef957d // indirect
	github.com/microcosm-cc/bluemonday v1.0.21 // indirect
	github.com/mitchellh/colorstring v0.0.0-20190213212951-d06e56a500db // indirect
	github.com/mitchellh/copystructure v1.2.0 // indirect
	github.com/mitchellh/go-homedir v1.1.0 // indirect
	github.com/mitchellh/reflectwalk v1.0.2 // indirect
	github.com/moby/sys/signal v0.7.0
	github.com/moby/term v0.0.0-20201216013528-df9cb8a40635 // indirect
	github.com/morikuni/aec v1.0.0 // indirect
	github.com/mrjones/oauth v0.0.0-20190623134757-126b35219450 // indirect
	github.com/muesli/reflow v0.3.0 // indirect
	github.com/olekukonko/tablewriter v0.0.5 // indirect
	github.com/onsi/gomega v1.10.3 // indirect
	github.com/opencontainers/go-digest v1.0.0 // indirect
	github.com/opencontainers/image-spec v1.0.1 // indirect
	github.com/pelletier/go-toml v1.9.4 // indirect
	github.com/pkg/errors v0.9.1 // indirect
	github.com/rivo/tview v0.0.0-20221029100920-c4a7e501810d // indirect
	github.com/rivo/uniseg v0.4.4 // indirect
	github.com/russross/blackfriday/v2 v2.1.0 // indirect
	github.com/sergi/go-diff v1.2.0 // indirect
	github.com/spf13/afero v1.6.0 // indirect
	github.com/spf13/cast v1.4.1 // indirect
	github.com/spf13/jwalterweatherman v1.1.0 // indirect
	github.com/spf13/viper v1.10.0 // indirect
	github.com/subosito/gotenv v1.2.0 // indirect
	github.com/tcnksm/go-gitconfig v0.1.2 // indirect
	github.com/tidwall/pretty v1.2.0 // indirect
	github.com/ulikunitz/xz v0.5.10 // indirect
	github.com/yuin/goldmark v1.5.2 // indirect
	github.com/yuin/goldmark-emoji v1.0.1 // indirect
	golang.org/x/crypto v0.0.0-20220518034528-6f7dac969898 // indirect
	golang.org/x/net v0.8.0 // indirect
	golang.org/x/oauth2 v0.0.0-20220722155238-128564f6959c // indirect
	golang.org/x/sync v0.1.0 // indirect
	golang.org/x/sys v0.6.0 // indirect
	golang.org/x/text v0.8.0 // indirect
	golang.org/x/time v0.0.0-20220722155302-e5dcc9cfc0b9 // indirect
	google.golang.org/appengine v1.6.7 // indirect
	google.golang.org/protobuf v1.28.1 // indirect
	gopkg.in/check.v1 v1.0.0-20201130134442-10cb98267c6c // indirect
	gotest.tools/v3 v3.0.3 // indirect
)

go 1.18
